^C:\USERS\IAKOVOS\SOURCE\REPOS\HYDROGEN\SANDBOX\MAIN.CPP
C:\USERS\IAKOVOS\SOURCE\REPOS\HYDROGEN\SANDBOX\DEBUG\VC141.PDB
C:\USERS\IAKOVOS\SOURCE\REPOS\HYDROGEN\SANDBOX\DEBUG\VC141.IDB
C:\USERS\IAKOVOS\SOURCE\REPOS\HYDROGEN\SANDBOX\DEBUG\MAIN.OBJ
