^C:\USERS\IAKOVOS\SOURCE\REPOS\HYDROGENENGINE\HYDROGEN\HYDROGENENGINE\APPLICATION.CPP
/c /ZI /JMC /nologo /W3 /WX- /diagnostics:classic /sdl /Od /D _MBCS /Gm- /EHsc /RTC1 /MDd /GS /fp:precise /permissive- /Zc:wchar_t /Zc:forScope /Zc:inline /Fo"X64\DEBUG\\" /Fd"X64\DEBUG\ENGINE.PDB" /Gd /TP /FC C:\USERS\IAKOVOS\SOURCE\REPOS\HYDROGENENGINE\HYDROGEN\HYDROGENENGINE\APPLICATION.CPP
^C:\USERS\IAKOVOS\SOURCE\REPOS\HYDROGENENGINE\HYDROGEN\HYDROGENENGINE\GLAD.C
/c /ZI /JMC /nologo /W3 /WX- /diagnostics:classic /sdl /Od /D _MBCS /Gm- /EHsc /RTC1 /MDd /GS /fp:precise /permissive- /Zc:wchar_t /Zc:forScope /Zc:inline /Fo"X64\DEBUG\\" /Fd"X64\DEBUG\ENGINE.PDB" /Gd /TC /FC C:\USERS\IAKOVOS\SOURCE\REPOS\HYDROGENENGINE\HYDROGEN\HYDROGENENGINE\GLAD.C
^C:\USERS\IAKOVOS\SOURCE\REPOS\HYDROGENENGINE\HYDROGEN\HYDROGENENGINE\TIMER.CPP
/c /ZI /JMC /nologo /W3 /WX- /diagnostics:classic /sdl /Od /D _MBCS /Gm- /EHsc /RTC1 /MDd /GS /fp:precise /permissive- /Zc:wchar_t /Zc:forScope /Zc:inline /Fo"X64\DEBUG\\" /Fd"X64\DEBUG\ENGINE.PDB" /Gd /TP /FC C:\USERS\IAKOVOS\SOURCE\REPOS\HYDROGENENGINE\HYDROGEN\HYDROGENENGINE\TIMER.CPP
^C:\USERS\IAKOVOS\SOURCE\REPOS\HYDROGENENGINE\HYDROGEN\HYDROGENENGINE\MATERIAL.CPP
/c /ZI /JMC /nologo /W3 /WX- /diagnostics:classic /sdl /Od /D _MBCS /Gm- /EHsc /RTC1 /MDd /GS /fp:precise /permissive- /Zc:wchar_t /Zc:forScope /Zc:inline /Fo"X64\DEBUG\\" /Fd"X64\DEBUG\ENGINE.PDB" /Gd /TP /FC C:\USERS\IAKOVOS\SOURCE\REPOS\HYDROGENENGINE\HYDROGEN\HYDROGENENGINE\MATERIAL.CPP
^C:\USERS\IAKOVOS\SOURCE\REPOS\HYDROGENENGINE\HYDROGEN\HYDROGENENGINE\SHADER.CPP
/c /ZI /JMC /nologo /W3 /WX- /diagnostics:classic /sdl /Od /D _MBCS /Gm- /EHsc /RTC1 /MDd /GS /fp:precise /permissive- /Zc:wchar_t /Zc:forScope /Zc:inline /Fo"X64\DEBUG\\" /Fd"X64\DEBUG\ENGINE.PDB" /Gd /TP /FC C:\USERS\IAKOVOS\SOURCE\REPOS\HYDROGENENGINE\HYDROGEN\HYDROGENENGINE\SHADER.CPP
^C:\USERS\IAKOVOS\SOURCE\REPOS\HYDROGENENGINE\HYDROGEN\HYDROGENENGINE\SPRITE.CPP
/c /ZI /JMC /nologo /W3 /WX- /diagnostics:classic /sdl /Od /D _MBCS /Gm- /EHsc /RTC1 /MDd /GS /fp:precise /permissive- /Zc:wchar_t /Zc:forScope /Zc:inline /Fo"X64\DEBUG\\" /Fd"X64\DEBUG\ENGINE.PDB" /Gd /TP /FC C:\USERS\IAKOVOS\SOURCE\REPOS\HYDROGENENGINE\HYDROGEN\HYDROGENENGINE\SPRITE.CPP
^C:\USERS\IAKOVOS\SOURCE\REPOS\HYDROGENENGINE\HYDROGEN\HYDROGENENGINE\MODEL.CPP
/c /ZI /JMC /nologo /W3 /WX- /diagnostics:classic /sdl /Od /D _MBCS /Gm- /EHsc /RTC1 /MDd /GS /fp:precise /permissive- /Zc:wchar_t /Zc:forScope /Zc:inline /Fo"X64\DEBUG\\" /Fd"X64\DEBUG\ENGINE.PDB" /Gd /TP /FC C:\USERS\IAKOVOS\SOURCE\REPOS\HYDROGENENGINE\HYDROGEN\HYDROGENENGINE\MODEL.CPP
^C:\USERS\IAKOVOS\SOURCE\REPOS\HYDROGENENGINE\HYDROGEN\HYDROGENENGINE\WINDOW.CPP
/c /ZI /JMC /nologo /W3 /WX- /diagnostics:classic /sdl /Od /D _MBCS /Gm- /EHsc /RTC1 /MDd /GS /fp:precise /permissive- /Zc:wchar_t /Zc:forScope /Zc:inline /Fo"X64\DEBUG\\" /Fd"X64\DEBUG\ENGINE.PDB" /Gd /TP /FC C:\USERS\IAKOVOS\SOURCE\REPOS\HYDROGENENGINE\HYDROGEN\HYDROGENENGINE\WINDOW.CPP
