^C:\USERS\IAKOVOS\SOURCE\REPOS\LEARNINGOPENGL\LEARNINGOPENGL\APPLICATION.CPP|C:\USERS\IAKOVOS\SOURCE\REPOS\LEARNINGOPENGL\LEARNINGOPENGL\WINDOW.CPP
C:\USERS\IAKOVOS\SOURCE\REPOS\HYDROGEN\HYDROGENENGINE\DEBUG\VC141.PDB
C:\USERS\IAKOVOS\SOURCE\REPOS\HYDROGEN\HYDROGENENGINE\DEBUG\VC141.IDB
C:\USERS\IAKOVOS\SOURCE\REPOS\HYDROGEN\HYDROGENENGINE\DEBUG\WINDOW.OBJ
C:\USERS\IAKOVOS\SOURCE\REPOS\HYDROGEN\HYDROGENENGINE\DEBUG\APPLICATION.OBJ
C:\USERS\IAKOVOS\SOURCE\REPOS\HYDROGEN\HYDROGENENGINE\DEBUG\HYDROGENENGINE.PDB
C:\USERS\IAKOVOS\SOURCE\REPOS\HYDROGEN\HYDROGENENGINE\DEBUG\HYDROGENENGINE.IDB
^C:\USERS\IAKOVOS\SOURCE\REPOS\LEARNINGOPENGL\LEARNINGOPENGL\APPLICATION.CPP
C:\USERS\IAKOVOS\SOURCE\REPOS\HYDROGEN\HYDROGENENGINE\DEBUG\VC141.PDB
C:\USERS\IAKOVOS\SOURCE\REPOS\HYDROGEN\HYDROGENENGINE\DEBUG\HYDROGENENGINE.PDB
^C:\USERS\IAKOVOS\SOURCE\REPOS\LEARNINGOPENGL\LEARNINGOPENGL\WINDOW.CPP
C:\USERS\IAKOVOS\SOURCE\REPOS\HYDROGEN\HYDROGENENGINE\DEBUG\VC141.PDB
C:\USERS\IAKOVOS\SOURCE\REPOS\HYDROGEN\HYDROGENENGINE\DEBUG\HYDROGENENGINE.PDB
^C:\USERS\IAKOVOS\SOURCE\REPOS\LEARNINGOPENGL\LEARNINGOPENGL\GLAD.C
C:\USERS\IAKOVOS\SOURCE\REPOS\HYDROGEN\HYDROGENENGINE\DEBUG\HYDROGENENGINE.PDB
C:\USERS\IAKOVOS\SOURCE\REPOS\HYDROGEN\HYDROGENENGINE\DEBUG\HYDROGENENGINE.IDB
C:\USERS\IAKOVOS\SOURCE\REPOS\HYDROGEN\HYDROGENENGINE\DEBUG\GLAD.OBJ
^C:\USERS\IAKOVOS\SOURCE\REPOS\HYDROGEN\HYDROGENENGINE\APPLICATION.CPP|C:\USERS\IAKOVOS\SOURCE\REPOS\HYDROGEN\HYDROGENENGINE\WINDOW.CPP
C:\USERS\IAKOVOS\SOURCE\REPOS\HYDROGEN\HYDROGENENGINE\DEBUG\HYDROGENENGINE.PDB
C:\USERS\IAKOVOS\SOURCE\REPOS\HYDROGEN\HYDROGENENGINE\DEBUG\HYDROGENENGINE.IDB
C:\USERS\IAKOVOS\SOURCE\REPOS\HYDROGEN\HYDROGENENGINE\DEBUG\WINDOW.OBJ
C:\USERS\IAKOVOS\SOURCE\REPOS\HYDROGEN\HYDROGENENGINE\DEBUG\APPLICATION.OBJ
^C:\USERS\IAKOVOS\SOURCE\REPOS\HYDROGEN\HYDROGENENGINE\APPLICATION.CPP
C:\USERS\IAKOVOS\SOURCE\REPOS\HYDROGEN\HYDROGENENGINE\DEBUG\HYDROGENENGINE.PDB
^C:\USERS\IAKOVOS\SOURCE\REPOS\HYDROGEN\HYDROGENENGINE\WINDOW.CPP
C:\USERS\IAKOVOS\SOURCE\REPOS\HYDROGEN\HYDROGENENGINE\DEBUG\HYDROGENENGINE.PDB
^C:\USERS\IAKOVOS\SOURCE\REPOS\HYDROGEN\HYDROGENENGINE\GLAD.C
C:\USERS\IAKOVOS\SOURCE\REPOS\HYDROGEN\HYDROGENENGINE\DEBUG\HYDROGENENGINE.PDB
C:\USERS\IAKOVOS\SOURCE\REPOS\HYDROGEN\HYDROGENENGINE\DEBUG\HYDROGENENGINE.IDB
C:\USERS\IAKOVOS\SOURCE\REPOS\HYDROGEN\HYDROGENENGINE\DEBUG\GLAD.OBJ
