^C:\USERS\IAKOVOS\SOURCE\REPOS\HYDROGENENGINE\HYDROGEN\HYDROGENENGINE\X64\RELEASE\APPLICATION.OBJ|C:\USERS\IAKOVOS\SOURCE\REPOS\HYDROGENENGINE\HYDROGEN\HYDROGENENGINE\X64\RELEASE\COMPONENT.OBJ|C:\USERS\IAKOVOS\SOURCE\REPOS\HYDROGENENGINE\HYDROGEN\HYDROGENENGINE\X64\RELEASE\GAMECOMPONENT.OBJ|C:\USERS\IAKOVOS\SOURCE\REPOS\HYDROGENENGINE\HYDROGEN\HYDROGENENGINE\X64\RELEASE\GAMEOBJECT.OBJ|C:\USERS\IAKOVOS\SOURCE\REPOS\HYDROGENENGINE\HYDROGEN\HYDROGENENGINE\X64\RELEASE\GLAD.OBJ|C:\USERS\IAKOVOS\SOURCE\REPOS\HYDROGENENGINE\HYDROGEN\HYDROGENENGINE\X64\RELEASE\MATERIAL.OBJ|C:\USERS\IAKOVOS\SOURCE\REPOS\HYDROGENENGINE\HYDROGEN\HYDROGENENGINE\X64\RELEASE\MODEL.OBJ|C:\USERS\IAKOVOS\SOURCE\REPOS\HYDROGENENGINE\HYDROGEN\HYDROGENENGINE\X64\RELEASE\SHADER.OBJ|C:\USERS\IAKOVOS\SOURCE\REPOS\HYDROGENENGINE\HYDROGEN\HYDROGENENGINE\X64\RELEASE\SPRITE.OBJ|C:\USERS\IAKOVOS\SOURCE\REPOS\HYDROGENENGINE\HYDROGEN\HYDROGENENGINE\X64\RELEASE\STATICCOMPONENT.OBJ|C:\USERS\IAKOVOS\SOURCE\REPOS\HYDROGENENGINE\HYDROGEN\HYDROGENENGINE\X64\RELEASE\TIMER.OBJ|C:\USERS\IAKOVOS\SOURCE\REPOS\HYDROGENENGINE\HYDROGEN\HYDROGENENGINE\X64\RELEASE\TRANSFORMCOMPONENT.OBJ|C:\USERS\IAKOVOS\SOURCE\REPOS\HYDROGENENGINE\HYDROGEN\HYDROGENENGINE\X64\RELEASE\WINDOW.OBJ
C:\USERS\IAKOVOS\SOURCE\REPOS\HYDROGENENGINE\HYDROGEN\HYDROGENENGINE\X64\RELEASE\APPLICATION.OBJ
C:\WINDOWS\SYSTEM32\TZRES.DLL
C:\USERS\IAKOVOS\SOURCE\REPOS\HYDROGENENGINE\HYDROGEN\HYDROGENENGINE\X64\RELEASE\COMPONENT.OBJ
C:\USERS\IAKOVOS\SOURCE\REPOS\HYDROGENENGINE\HYDROGEN\HYDROGENENGINE\X64\RELEASE\GAMECOMPONENT.OBJ
C:\USERS\IAKOVOS\SOURCE\REPOS\HYDROGENENGINE\HYDROGEN\HYDROGENENGINE\X64\RELEASE\GAMEOBJECT.OBJ
C:\USERS\IAKOVOS\SOURCE\REPOS\HYDROGENENGINE\HYDROGEN\HYDROGENENGINE\X64\RELEASE\GLAD.OBJ
C:\USERS\IAKOVOS\SOURCE\REPOS\HYDROGENENGINE\HYDROGEN\HYDROGENENGINE\X64\RELEASE\MATERIAL.OBJ
C:\USERS\IAKOVOS\SOURCE\REPOS\HYDROGENENGINE\HYDROGEN\HYDROGENENGINE\X64\RELEASE\MODEL.OBJ
C:\USERS\IAKOVOS\SOURCE\REPOS\HYDROGENENGINE\HYDROGEN\HYDROGENENGINE\X64\RELEASE\SHADER.OBJ
C:\USERS\IAKOVOS\SOURCE\REPOS\HYDROGENENGINE\HYDROGEN\HYDROGENENGINE\X64\RELEASE\SPRITE.OBJ
C:\USERS\IAKOVOS\SOURCE\REPOS\HYDROGENENGINE\HYDROGEN\HYDROGENENGINE\X64\RELEASE\STATICCOMPONENT.OBJ
C:\USERS\IAKOVOS\SOURCE\REPOS\HYDROGENENGINE\HYDROGEN\HYDROGENENGINE\X64\RELEASE\TIMER.OBJ
C:\USERS\IAKOVOS\SOURCE\REPOS\HYDROGENENGINE\HYDROGEN\HYDROGENENGINE\X64\RELEASE\TRANSFORMCOMPONENT.OBJ
C:\USERS\IAKOVOS\SOURCE\REPOS\HYDROGENENGINE\HYDROGEN\HYDROGENENGINE\X64\RELEASE\WINDOW.OBJ
C:\WINDOWS\GLOBALIZATION\SORTING\SORTDEFAULT.NLS
