^C:\USERS\IAKOVOS\SOURCE\REPOS\HYDROGENENGINE\HYDROGEN\SANDBOX\X64\RELEASE\MAIN.OBJ
C:\USERS\IAKOVOS\SOURCE\REPOS\HYDROGENENGINE\HYDROGEN\X64\RELEASE\SANDBOX.EXE
C:\USERS\IAKOVOS\SOURCE\REPOS\HYDROGENENGINE\HYDROGEN\X64\RELEASE\SANDBOX.PDB
